{
  "devocionais": [
    { "mes": "novembro", "dia": 1, "leitura":  "João 5-6" },
	{ "mes": "novembro", "dia": 2, "leitura":  "João 7-8" },
	{ "mes": "novembro", "dia": 3, "leitura":  "João 9-10" },
	{ "mes": "novembro", "dia": 4, "leitura":  "João 11-12" },
	{ "mes": "novembro", "dia": 5, "leitura":  "João 13-15" },
	{ "mes": "novembro", "dia": 6, "leitura":  "João 16-18" },
	{ "mes": "novembro", "dia": 7, "leitura":  "João 19-21" },
	{ "mes": "novembro", "dia": 8, "leitura":  "Atos 1-2" },
	{ "mes": "novembro", "dia": 9, "leitura":  "Atos 3-5" },
	{ "mes": "novembro", "dia": 10, "leitura": "Atos 6-7" },
	{ "mes": "novembro", "dia": 11, "leitura": "Atos 8-9" },
	{ "mes": "novembro", "dia": 12, "leitura": "Atos 10-11" },
	{ "mes": "novembro", "dia": 13, "leitura": "Atos 12-13" },
	{ "mes": "novembro", "dia": 14, "leitura": "Atos 14-16" },
	{ "mes": "novembro", "dia": 15, "leitura": "Atos 17-19" },
	{ "mes": "novembro", "dia": 16, "leitura": "Atos 20-21" },
	{ "mes": "novembro", "dia": 17, "leitura": "Atos 22-24" },
	{ "mes": "novembro", "dia": 18, "leitura": "Atos 25-28" },
	{ "mes": "novembro", "dia": 19, "leitura": "Romanos 1-3" },	
	{ "mes": "novembro", "dia": 20, "leitura": "Romanos 4-7" },
	{ "mes": "novembro", "dia": 21, "leitura": "Romanos 8-9" },
	{ "mes": "novembro", "dia": 22, "leitura": "Romanos 10-12" },
	{ "mes": "novembro", "dia": 23, "leitura": "Romanos 13-16" },
	{ "mes": "novembro", "dia": 24, "leitura": "I Coríntios 1-4" },
	{ "mes": "novembro", "dia": 25, "leitura": "I Coríntios 5-7" },
    { "mes": "novembro", "dia": 26, "leitura": "I Coríntios 8-10" },
	{ "mes": "novembro", "dia": 27, "leitura": "I Coríntios 11-13" },
	{ "mes": "novembro", "dia": 28, "leitura": "I Coríntios 14-16" },
	{ "mes": "novembro", "dia": 29, "leitura": "II Coríntios 1-4" },
	{ "mes": "novembro", "dia": 30, "leitura": "II Coríntios 5-8" }	
  ]
}