	Abril
1	I Samuel 28-31
2	II Samuel 1-3  
3	II Samuel 4-7  
4	II Samuel 8-11 
5	II Samuel 12-14
6	II Samuel 15-17
7	II Samuel 18-19
8	II Samuel 20-22
9	II Samuel 23-24
10	I Reis 1-2  
11	I Reis 3-5  
12	I Reis 6-7  
13	I Reis 8-9  
14	I Reis 10-11
15	I Reis 12-14
16	I Reis 15-17
17	I Reis 18-20
18	I Reis 21-22
19	II Reis 1-4  
20	II Reis 5-7  
21	II Reis 8-10 
22	II Reis 11-14
23	II Reis 15-17
24	II Reis 18-19
25	II Reis 20-23
26	II Reis 24-25
27	I Crônicas 1-2  
28	I Crônicas 3-5  
29	I Crônicas 6    
30	I Crônicas 7-8