{
  "devocionais": [
    { "mes": "maio", "dia": 1, "leitura":  "I Crônicas 9-11" },
	{ "mes": "maio", "dia": 2, "leitura":  "I Crônicas 12-15" },
	{ "mes": "maio", "dia": 3, "leitura":  "I Crônicas 16-18" },
	{ "mes": "maio", "dia": 4, "leitura":  "I Crônicas 19-22" },
	{ "mes": "maio", "dia": 5, "leitura":  "I Crônicas 23-25" },
	{ "mes": "maio", "dia": 6, "leitura":  "I Crônicas 26-29" },
	{ "mes": "maio", "dia": 7, "leitura":  "II Crônicas 1-4" },
	{ "mes": "maio", "dia": 8, "leitura":  "II Crônicas 5-7" },
	{ "mes": "maio", "dia": 9, "leitura":  "II Crônicas 8-11" },
	{ "mes": "maio", "dia": 10, "leitura": "II Crônicas 12-15" },
	{ "mes": "maio", "dia": 11, "leitura": "II Crônicas 16-19" },
	{ "mes": "maio", "dia": 12, "leitura": "II Crônicas 20-23" },
	{ "mes": "maio", "dia": 13, "leitura": "II Crônicas 24-26" },
	{ "mes": "maio", "dia": 14, "leitura": "II Crônicas 27-29" },
	{ "mes": "maio", "dia": 15, "leitura": "II Crônicas 30-32" },
	{ "mes": "maio", "dia": 16, "leitura": "II Crônicas 33-36" },
	{ "mes": "maio", "dia": 17, "leitura": "Esdras 1-2" },
	{ "mes": "maio", "dia": 18, "leitura": "Esdras 3-6" },
	{ "mes": "maio", "dia": 19, "leitura": "Esdras 7-10" },	
	{ "mes": "maio", "dia": 20, "leitura": "Neemias 1-5" },
	{ "mes": "maio", "dia": 21, "leitura": "Neemias 6-7" },
	{ "mes": "maio", "dia": 22, "leitura": "Neemias 8-10" },
	{ "mes": "maio", "dia": 23, "leitura": "Neemias 11-13 " },
	{ "mes": "maio", "dia": 24, "leitura": "Ester 1-4" },
	{ "mes": "maio", "dia": 25, "leitura": "Ester 5-10" },
    { "mes": "maio", "dia": 26, "leitura": "Jó 1-2" },
	{ "mes": "maio", "dia": 27, "leitura": "Jó 3-5" },
	{ "mes": "maio", "dia": 28, "leitura": "Jó 6-8" },
	{ "mes": "maio", "dia": 29, "leitura": "Jó 9-11" },
	{ "mes": "maio", "dia": 30, "leitura": "Jó 12-15" },
	{ "mes": "maio", "dia": 31, "leitura": "Jó 16-20" }
  ]
}