{
  "devocionais": [
    { "mes": "dezembro", "dia": 1, "leitura":  "II Coríntios 9-13" },
	{ "mes": "dezembro", "dia": 2, "leitura":  "Gálatas 1-3" },
	{ "mes": "dezembro", "dia": 3, "leitura":  "Gálatas 4-6" },
	{ "mes": "dezembro", "dia": 4, "leitura":  "Efésios 1-4" },
	{ "mes": "dezembro", "dia": 5, "leitura":  "Efésios 5-6" },
	{ "mes": "dezembro", "dia": 6, "leitura":  "Filipenses 1-4" },
	{ "mes": "dezembro", "dia": 7, "leitura":  "Colossenses 1-4" },
	{ "mes": "dezembro", "dia": 8, "leitura":  "I Tessalonicenses 1-5" },
	{ "mes": "dezembro", "dia": 9, "leitura":  "II Tessalonicenses 1-3" },
	{ "mes": "dezembro", "dia": 10, "leitura": "I Timóteo 1-6" },
	{ "mes": "dezembro", "dia": 11, "leitura": "II Timóteo 1-4" },
	{ "mes": "dezembro", "dia": 12, "leitura": "Tito 1-3" },
	{ "mes": "dezembro", "dia": 13, "leitura": "Filemom 1" },
	{ "mes": "dezembro", "dia": 14, "leitura": "Hebreus 1-5" },
	{ "mes": "dezembro", "dia": 15, "leitura": "Hebreus 6-9" },
	{ "mes": "dezembro", "dia": 16, "leitura": "Hebreus 10-11" },
	{ "mes": "dezembro", "dia": 17, "leitura": "Hebreus 12-13" },
	{ "mes": "dezembro", "dia": 18, "leitura": "Tiago 1-5" },
	{ "mes": "dezembro", "dia": 19, "leitura": "I Pedro 1-3" },	
	{ "mes": "dezembro", "dia": 20, "leitura": "I Pedro 4-5" },
	{ "mes": "dezembro", "dia": 21, "leitura": "II Pedro 1-3" },
	{ "mes": "dezembro", "dia": 22, "leitura": "I João 1-5" },
	{ "mes": "dezembro", "dia": 23, "leitura": "II João 1" },
	{ "mes": "dezembro", "dia": 24, "leitura": "III João 1" },
	{ "mes": "dezembro", "dia": 25, "leitura": "Judas 1" },
    { "mes": "dezembro", "dia": 26, "leitura": "Apocalipse 1-4" },
	{ "mes": "dezembro", "dia": 27, "leitura": "Apocalipse 5-9" },
	{ "mes": "dezembro", "dia": 28, "leitura": "Apocalipse 10-14" },
	{ "mes": "dezembro", "dia": 29, "leitura": "Apocalipse 15-19" },
	{ "mes": "dezembro", "dia": 30, "leitura": "Apocalipse 20-22" }	
  ]
}