{
  "devocionais": [
    { "mes": "agosto", "dia": 1, "leitura":  "Isaías 41-43" },
	{ "mes": "agosto", "dia": 2, "leitura":  "Isaías 44-47" },
	{ "mes": "agosto", "dia": 3, "leitura":  "Isaías 48-51" },
	{ "mes": "agosto", "dia": 4, "leitura":  "Isaías 52-57" },
	{ "mes": "agosto", "dia": 5, "leitura":  "Isaías 58-62" },
	{ "mes": "agosto", "dia": 6, "leitura":  "Isaías 63-66" },
	{ "mes": "agosto", "dia": 7, "leitura":  "Jeremias 1-3" },
	{ "mes": "agosto", "dia": 8, "leitura":  "Jeremias 4-6" },
	{ "mes": "agosto", "dia": 9, "leitura":  "Jeremias 7-9" },
	{ "mes": "agosto", "dia": 10, "leitura": "Jeremias 10-13" },
	{ "mes": "agosto", "dia": 11, "leitura": "Jeremias 14-17" },
	{ "mes": "agosto", "dia": 12, "leitura": "Jeremias 18-22" },
	{ "mes": "agosto", "dia": 13, "leitura": "Jeremias 23-25" },
	{ "mes": "agosto", "dia": 14, "leitura": "Jeremias 26-29" },
	{ "mes": "agosto", "dia": 15, "leitura": "Jeremias 30-32" },
	{ "mes": "agosto", "dia": 16, "leitura": "Jeremias 33-36" },
	{ "mes": "agosto", "dia": 17, "leitura": "Jeremias 37-40" },
	{ "mes": "agosto", "dia": 18, "leitura": "Jeremias 41-44" },
	{ "mes": "agosto", "dia": 19, "leitura": "Jeremias 45-48" },	
	{ "mes": "agosto", "dia": 20, "leitura": "Jeremias 49-50" },
	{ "mes": "agosto", "dia": 21, "leitura": "Jeremias 51-52" },
	{ "mes": "agosto", "dia": 22, "leitura": "Lamentações 1-3" },
	{ "mes": "agosto", "dia": 23, "leitura": "Lamentações 4-5" },
	{ "mes": "agosto", "dia": 24, "leitura": "Ezequiel 1-4" },
	{ "mes": "agosto", "dia": 25, "leitura": "Ezequiel 5-8" },
    { "mes": "agosto", "dia": 26, "leitura": "Ezequiel 9-12 " },
	{ "mes": "agosto", "dia": 27, "leitura": "Ezequiel 13-16" },
	{ "mes": "agosto", "dia": 28, "leitura": "Ezequiel 17-20" },
	{ "mes": "agosto", "dia": 29, "leitura": "Ezequiel 21-23" },
	{ "mes": "agosto", "dia": 30, "leitura": "Ezequiel 24-27" },
	{ "mes": "agosto", "dia": 31, "leitura": "Ezequiel 28-30" }
  ]
}